

{
    "Ciudades":[
        {
            "ciudad": "Barcelona",
            "comarca": "Catalunya"
        },
        {
            "ciudad": "Tarragona",
            "comarca": "Catalunya"
        },
        {
            "ciudad": "Mataro",
            "comarca": "Catalunya"
        },
        {
            "ciudad": "Valencia",
            "comarca": "Comunidad Valenciana"
        },
        {
            "ciudad": "Alicante",
            "comarca": "Comunidad Valenciana"
        },
        {
            "ciudad": "Benidor",
            "comarca": "Comunidad Valenciana"
        },
        {
            "ciudad": "Sevilla",
            "comarca": "Andalucia"
        },
        {
            "ciudad": "Granada",
            "comarca": "Andalucia"
        },
        {
            "ciudad": "Huelva",
            "comarca": "Andalucia"
        }
    ]
}
